Crafting kind tools
…
---
class: middle

# If you're teaching a tidyverse centric course, you'll get tibbles 

```
# A tibble: 344 × 8
   species island   bill_length_mm
   <fct>   <fct>             <dbl>
 1 Adelie  Torgers…           39.1
 2 Adelie  Torgers…           39.5
 3 Adelie  Torgers…           40.3
 4 Adelie  Torgers…           NA  
 5 Adelie  Torgers…           36.7
 6 Adelie  Torgers…           39.3
 7 Adelie  Torgers…           38.9
 8 Adelie  Torgers…           39.2
 9 Adelie  Torgers…           34.1
10 Adelie  Torgers…           42  
# … with 334 more rows, and 5
#   more variables:
#   bill_depth_mm <dbl>,
#   flipper_length_mm <int>,
#   body_mass_g <int>, sex <fct>,
#   year <int>
```
…
